M48
INCH
T79C0.012
T78C0.035
T77C0.020
T76C0.160
T75C0.075
T74C0.048
T73C0.060
T72C0.032
T71C0.038
T70C0.030
T69C0.028
T68C0.043
T67C0.058
%
T79
X061150Y041750
X064950Y053400
X072500Y053150
X070450Y052800
X070450Y053150
X064000Y053650
X063000Y053800
X070500Y053900
X062000Y053900
X070400Y054200
X061450Y054250
X078900Y053350
X070450Y053550
X070450Y054550
X097499Y052500
X096999Y050650
X096999Y045550
X096749Y048450
X096099Y048500
X095999Y045550
X095999Y050700
X095499Y046800
X100899Y051250
X100449Y051350
X100099Y051350
X101099Y047400
X099799Y052600
X099549Y051200
X099249Y051050
X098999Y045600
X100349Y048150
X100049Y048350
X093499Y050500
X092499Y050750
X093299Y050200
X094299Y048600
X094499Y047200
X091149Y050600
X090999Y054250
X090749Y053150
X060850Y044150
X059550Y044150
X066000Y053300
X060800Y036700
T77
X036500Y041400
X036750Y039500
X031500Y042850
X031750Y039650
X031950Y041650
X032250Y039650
X032750Y040200
X038500Y045250
X089449Y029950
X093549Y030950
X091949Y017000
X091899Y020400
X091399Y026000
X094799Y026200
X088499Y025450
X037600Y048500
X037500Y045250
X087449Y020000
X038700Y041600
X038800Y039700
X036050Y041150
X038250Y040450
X031250Y039650
X030000Y041550
X087749Y019000
X088149Y016000
X097149Y031400
X104499Y015500
X104149Y014000
X100449Y007200
X100199Y007650
X096949Y009000
X026450Y040100
X026450Y042800
X099949Y008050
X104449Y016500
X092599Y007300
X027500Y040100
X035400Y017900
X096399Y017500
X099349Y021500
X096849Y016000
X096849Y017500
X098149Y017000
X100099Y022000
X036200Y017900
X038200Y023350
X102699Y031400
X103249Y031350
X099799Y032300
X098249Y021000
X096849Y018700
X100449Y026900
X099699Y025450
X102349Y025100
X097949Y019000
X100099Y021000
X038200Y017400
X036600Y017550
X031950Y023350
X032950Y027950
X037000Y028750
X037900Y031100
X038250Y031500
X037250Y037000
X033450Y028550
X033150Y030950
X032300Y030100
X084599Y029100
X069000Y011450
X070700Y010750
X069600Y010750
X070000Y014900
X067500Y010850
X068500Y010250
X070500Y006650
X071000Y006750
X072000Y006750
X073000Y006750
X063900Y006700
X063400Y006950
X059250Y002750
X059750Y002500
X062950Y007250
X060250Y002250
X060750Y002000
X062500Y007500
X062000Y007800
X087899Y007300
X080300Y009500
X084799Y014100
X084949Y004200
X083300Y006950
X082800Y001950
X083000Y001350
X090149Y032450
X086849Y007700
X085699Y006800
X085299Y006650
X083950Y008600
X090249Y025100
X088849Y023500
X088199Y023850
X063500Y023500
X060400Y022050
X063100Y021900
X065200Y024700
X064750Y024550
X066550Y022400
X066950Y023500
X055800Y022200
X056800Y026550
X056250Y025450
X054650Y025450
X057450Y023000
X058950Y019300
X060600Y021300
X059600Y019300
X066900Y018250
X058700Y018500
X063000Y018400
X062700Y018050
X062400Y017700
X062150Y017350
X061900Y017000
X061450Y017100
X061150Y016800
X060850Y016500
X060550Y016200
X060100Y016300
X048500Y037250
X050850Y037400
X056150Y037000
X032850Y028550
X027950Y056100
X027500Y056100
X025350Y055300
X027750Y058950
X027450Y058350
X022800Y056150
X055350Y036250
X055500Y034950
X056700Y036100
X034100Y056250
X024000Y056150
X028100Y054550
X027200Y051900
X020650Y055250
X022600Y053650
X022000Y052750
X023000Y052600
X016300Y057450
X017700Y058200
X016500Y055250
X015950Y051000
X015500Y051000
X014400Y049900
X013900Y050650
X087849Y024150
X016050Y053750
X016500Y050800
X066400Y034150
X067150Y032850
X059850Y037800
X031300Y031500
X058800Y033950
X087449Y024400
X084000Y024400
X018000Y053550
X019000Y053350
X020000Y053150
X021000Y052950
X061550Y029800
X061850Y030150
X061500Y030750
X064450Y027100
X014300Y055950
X013750Y055950
X066900Y028600
X064750Y028650
X084400Y024700
X083700Y024750
X061000Y029650
X015500Y056800
X032000Y050650
X059450Y028550
X061150Y031250
X082800Y024650
X082350Y024800
X057450Y021100
X055450Y021200
X053550Y021250
X099749Y024550
X099299Y024750
X081900Y024550
X057100Y028600
X055100Y026950
X054550Y031550
X049500Y030600
X055550Y031900
X055200Y032300
X054850Y032700
X054500Y033100
X032000Y045250
X033000Y044250
X027500Y045250
X028500Y044250
X027850Y041650
X030000Y040800
X029250Y042500
X034500Y042500
X023500Y042500
X035000Y043800
X058800Y032450
X056000Y033600
X079300Y024450
X054200Y014900
X055350Y012000
X055600Y013450
X056300Y011200
X016600Y030300
X019500Y035450
X085749Y024400
X059800Y015950
X059500Y015600
X059200Y015250
X078700Y024250
X060500Y008250
X055150Y010300
X054100Y010300
X054350Y009900
X052700Y009100
X053900Y010750
X055500Y007150
X056400Y007850
X055950Y007850
X059550Y003900
X051950Y009750
X052350Y009400
X063500Y005000
X061550Y005250
X062600Y005950
X064800Y006300
X061250Y005650
X063300Y006250
X019000Y037500
X030600Y040650
X019950Y050650
X019500Y048750
X023500Y049000
X002950Y032350
X002650Y032050
X002350Y031750
X065500Y006700
X066050Y010250
X052550Y001150
X052100Y001150
X051650Y001150
X072300Y022100
X073700Y023600
X074150Y024050
X047900Y013600
X047550Y010750
X041050Y004250
X041750Y009950
X041100Y003050
X045400Y010750
X052650Y014500
X053100Y011850
X072700Y023550
X084649Y021500
X084649Y020500
X084649Y018500
X039650Y015400
X045550Y013600
X084749Y015000
X084649Y019000
X049450Y050550
X048550Y050550
X048550Y048250
X050150Y048650
X055000Y047100
X054150Y046850
X051500Y046800
X052150Y047400
X050500Y046950
X049500Y045250
X048500Y045250
X049500Y044250
X047500Y044250
X051250Y042500
X046000Y043800
X045500Y042500
X047450Y041550
X045500Y040250
X002050Y031450
X001750Y031150
X001450Y030850
X001150Y030550
X000850Y030250
X003000Y023000
X003650Y045500
X002450Y045500
X006500Y047350
X003650Y049750
X005900Y049750
X002400Y049400
X006150Y051100
X002400Y051500
X004700Y050450
X003550Y051550
X056300Y040200
X045100Y040550
X044500Y040250
X079500Y019450
X004750Y055400
X003600Y053600
X012550Y053850
X012050Y053950
X006300Y053900
X007400Y055400
X005750Y055300
X003750Y059000
X004750Y056750
X006000Y058500
X014450Y057950
X013900Y057700
X061850Y039850
X057000Y039800
X061300Y039850
X054000Y045250
X046850Y044050
X051500Y044250
X049950Y041700
X044000Y044250
X055000Y044250
X056000Y041550
X057000Y043800
X039650Y053200
X040200Y053050
X040550Y053450
X041000Y053450
X044100Y047750
X044000Y041500
X043000Y045350
X043100Y046850
X043550Y040300
X041000Y039850
X040450Y046700
X013400Y057700
X041800Y045650
X013000Y049900
X011250Y050950
X011950Y050650
X041200Y047350
X040250Y042500
X041500Y048750
X035600Y051400
X027200Y050150
X028100Y051350
X027650Y051450
X029250Y052150
X028950Y052450
X028650Y052750
X024000Y052600
X024850Y050650
X023500Y052600
X032650Y040650
X010200Y053500
X033100Y040500
X009000Y051000
X030500Y048750
X050400Y021100
X050500Y019250
X045350Y025300
X052650Y017950
X050950Y019000
X043950Y017900
X043950Y019000
X045200Y021350
X045700Y021100
X051750Y028700
X049800Y028750
X047500Y028700
X045500Y023450
X043550Y026250
X040800Y024900
X043000Y026050
X046100Y025200
X046900Y025400
X046450Y026950
X052700Y023550
X050400Y023100
X053000Y024000
X079250Y019050
X068300Y019200
X079700Y018300
X081700Y018100
X074650Y018150
X079250Y018300
X079250Y017750
X069400Y018200
X074650Y019300
X035900Y029250
X030550Y032650
X031850Y033550
X032300Y033250
X033250Y033250
X037750Y031850
X038750Y031150
X039750Y031150
X038250Y034500
X040250Y034300
X039250Y034150
X038250Y033900
X037250Y033750
X036250Y033550
X052500Y034700
X010000Y050600
X009700Y053500
X008500Y049000
X015000Y034000
X014000Y037500
X011500Y040300
X010550Y040300
X013500Y041600
X012500Y042500
X011300Y045250
X013000Y045650
X012500Y045800
X010500Y045800
X009000Y045300
X008000Y045350
X008150Y048550
X007550Y045800
X010050Y034450
X050500Y031450
X052200Y030000
X050850Y030300
X050000Y031650
X043350Y031500
X043350Y032100
X041750Y031150
X040750Y031150
X044550Y034500
X045000Y034700
X045500Y036250
X046500Y033200
X025750Y026000
X025250Y025500
X024750Y025000
X024250Y024500
X030900Y031150
X023250Y023500
X022750Y023000
X035650Y016150
X035150Y016450
X034750Y016750
X034350Y017100
X074650Y018750
X071750Y018900
X039450Y018750
X071850Y019450
X073850Y016000
X071750Y021150
X084999Y017500
X026250Y026500
X022450Y028850
X079500Y016500
X086499Y026050
X080900Y028600
X027150Y024950
X083550Y030150
X083050Y030000
X015150Y014900
X014750Y015500
X084300Y028750
X082400Y030200
X083200Y031300
X077100Y029650
X068550Y031250
X076000Y031250
X067700Y031300
X006250Y003250
X007500Y003000
X008500Y003000
X009350Y036850
X004800Y038750
X009500Y003000
X010500Y003000
X011500Y003000
X012500Y003000
X013500Y003000
X013250Y009500
X014250Y016000
X013750Y016500
X004950Y039200
X005050Y039700
X005250Y040150
X005450Y040700
X009950Y038950
X007500Y040150
X008000Y041650
X010000Y041600
X008500Y040400
X005800Y041400
X006200Y042250
X007500Y043800
X003650Y041800
X011000Y044150
X103499Y055500
X103049Y051050
X104499Y059550
X104499Y052150
X104499Y051200
X104249Y050350
X103049Y052150
X103549Y051200
X101699Y053500
X101699Y057500
X117449Y054500
X112499Y055500
X013250Y017000
X011750Y017500
X078150Y031300
X067850Y025100
X076050Y026550
X011950Y020950
X011750Y018500
X075500Y026500
X114199Y054000
X114199Y053000
X113749Y053000
X069950Y026650
X034450Y004150
X032250Y009150
X032150Y003150
X032600Y003850
X032750Y007600
X033050Y007950
X037400Y007950
X037800Y008250
X038250Y008550
X038650Y008850
X039000Y009200
X039300Y009550
X075850Y025400
X076850Y025700
X078250Y027100
X038600Y021250
X037750Y021150
X113449Y052150
X115149Y051100
X114649Y051100
X113449Y058350
X111999Y049900
X112199Y050350
X030400Y004650
X031850Y008450
X029700Y008250
X031850Y006900
X111999Y051250
X111999Y052150
X111549Y052150
X031850Y007800
X027850Y002900
X027100Y014500
X031450Y023200
X030350Y023550
X027550Y022850
X033700Y026450
X033800Y018550
X033800Y017950
X033700Y025400
X030200Y010450
X028100Y011350
X028850Y010600
X028150Y010750
X108499Y055500
X108499Y052700
X107999Y049800
X107999Y051200
X072200Y028650
X032550Y017250
X032025Y017025
X028150Y017200
X108999Y052150
X109449Y052150
X109449Y051250
X109799Y052450
X111249Y052450
X033050Y017600
X028400Y017600
X074500Y028550
X034300Y011400
X033800Y011350
X033400Y013800
X033750Y014250
X034150Y014600
X034600Y014900
X079100Y031300
X037050Y014500
X039300Y015150
X038350Y014350
X080700Y029100
X079950Y032150
X021300Y018750
X021750Y019250
X022150Y014750
X026050Y010050
X025000Y010350
X024100Y013900
X024550Y014850
X110149Y049800
X111099Y051250
X111549Y051250
X111499Y049000
X110049Y051250
X105499Y047200
X105499Y048600
X103549Y048200
X103899Y048500
X104449Y045300
X103499Y045300
X105999Y051200
X108599Y051100
X106999Y049800
X107099Y047450
X107049Y048500
X023650Y014200
X022100Y010350
X021400Y010350
X079100Y036750
X019450Y014000
X106499Y046550
X079800Y036450
X052500Y048750
X063500Y048750
X107499Y048750
X018650Y025050
X018450Y025450
X019100Y025250
X019100Y025700
X019100Y026200
X019400Y026700
X018100Y028400
X074500Y048750
X002850Y027100
X006600Y024000
X006300Y024400
X009350Y025900
X009700Y025350
X002800Y024550
X003400Y026550
X104549Y042800
X105499Y042800
X106249Y042500
X108499Y045400
X108999Y045250
X109999Y044250
X117949Y052200
X110249Y052300
X112449Y051250
X112999Y052250
X116499Y052150
X119199Y052200
X119499Y052500
X119999Y051050
X116099Y051100
X115899Y050400
X117974Y049875
X117099Y049800
X063050Y048650
X056500Y042500
X067500Y042500
X007650Y023650
X008550Y023500
X007800Y022500
X010500Y021750
X009250Y023500
X008250Y022000
X014600Y020950
X015800Y019000
X011150Y021000
X011450Y021350
X010300Y019200
X078500Y042500
X008100Y019350
X062250Y042500
X007400Y012400
X006250Y011000
X005000Y016000
X004750Y017000
X004500Y018000
X004250Y019000
X004000Y020000
X003750Y021000
X003500Y022000
X015300Y014350
X017850Y014850
X115649Y051100
X117499Y046800
X117649Y042800
X116499Y042850
X115549Y045250
X114499Y045250
X018200Y015150
X018550Y015450
X018900Y015750
X017150Y018850
X018650Y017050
X018100Y017050
X010900Y022250
X011800Y022450
X015150Y025950
X015300Y025500
X015300Y021150
X014250Y025000
X016200Y025150
X013750Y024750
X010500Y024400
X011750Y024100
X013250Y024500
X012750Y024250
X012250Y024000
X010500Y023750
X073250Y042500
X077000Y044200
X065500Y048250
X064500Y045750
X066000Y045500
X067250Y048000
X066000Y044150
X078950Y043800
X112999Y050200
X116499Y047050
X072500Y047150
X072150Y048600
X034500Y049000
X045500Y049000
X056500Y049000
X067500Y049000
X078500Y049000
X115049Y050350
X114899Y048350
X061500Y047250
X058450Y043800
X060000Y043900
X031400Y030250
X030150Y030700
X046850Y045200
X046000Y045200
X040050Y048050
X039900Y048600
X039500Y047100
X089499Y049000
X031150Y029650
X028850Y031050
X027650Y030900
X088599Y052300
X088599Y053300
X023850Y029750
X026150Y029500
X027350Y031850
X026300Y031850
X025350Y031850
X117049Y048050
X116099Y048500
X085499Y048750
X086999Y045200
X114449Y048250
X110999Y048250
X086499Y045450
X087499Y045450
X087999Y051350
X085149Y047300
X087349Y056150
X087749Y057250
X092999Y057500
X092999Y055550
X100499Y049000
X100499Y042500
X098999Y044250
X025000Y032950
X012500Y049000
X013100Y048550
X100999Y043800
X014300Y048350
X013500Y047500
X013600Y047000
X111499Y045400
X114449Y042800
X013900Y045500
X111999Y043800
X100799Y048100
X111499Y042500
X104149Y037300
X108799Y041700
X011700Y047800
X013800Y044250
X015700Y044000
X100599Y056500
X105999Y037850
X108999Y039450
X104499Y040050
X104999Y040300
X106999Y040450
X107999Y040950
X132699Y052200
X084250Y042500
X082500Y045250
X089499Y042500
X087999Y044250
X085999Y040950
X084999Y040450
X083000Y040250
X086999Y038000
X087999Y037650
X084000Y038100
X085499Y037950
X082550Y040050
X082500Y045700
X082500Y046900
X084500Y046700
X083650Y045800
X082150Y038100
X095249Y042500
X015700Y048150
X095249Y053250
X096999Y040900
X097449Y037050
X097449Y036150
X095999Y040500
X131499Y052200
X131499Y051050
X130499Y051050
X128949Y051050
X128499Y051050
X130499Y052200
X128949Y052200
X128499Y052200
X121849Y052200
X123299Y052200
X122849Y052200
X122349Y052200
X018250Y042500
X016150Y041250
X095849Y036150
X097999Y038500
X097999Y053100
X096499Y048750
X097999Y045250
X016500Y037000
X019500Y036950
X018850Y036200
X022450Y047900
X022450Y046900
X089999Y043800
X092499Y045350
X093549Y045350
X093999Y040250
X093499Y040050
X092949Y038450
X072500Y009550
X075550Y010450
X075300Y010850
X071500Y009550
X071000Y009550
X072000Y009250
X073000Y009000
X074000Y008750
X074000Y006750
X074500Y009550
X073500Y009550
X076450Y014000
X076450Y015950
X076450Y015400
X076450Y014800
X088849Y014000
X091799Y011000
X091999Y009950
X091799Y011900
X092949Y013950
X122499Y051050
X121999Y051050
X098199Y013550
X088149Y014500
X088849Y016500
X088099Y012000
X087999Y013000
X088149Y015500
X098199Y015900
X117949Y051150
X121249Y051050
X078450Y013000
X077550Y012000
X078750Y011000
X078750Y011500
X078750Y012500
X076450Y010500
X077000Y009950
X075800Y010050
X078450Y010000
X077500Y009050
X078450Y009000
X078750Y008700
X079050Y008350
X080725Y007025
X080300Y010500
X079950Y016600
X079700Y017750
X070500Y058500
X023750Y048100
X024800Y048550
X070450Y054950
X069400Y055150
X018950Y048100
X081850Y053700
X081600Y055350
X076000Y050650
X077200Y051000
X018100Y048100
X017500Y047200
X019000Y045400
X024500Y040250
X025200Y045550
X026500Y045550
X026500Y046800
X021000Y045400
X120999Y049850
X125649Y049800
X020000Y045400
X123399Y051050
X122949Y051050
X123899Y051150
X127449Y042850
X130999Y040950
X129999Y040950
X131999Y044250
X128249Y042500
X125399Y038100
X126549Y038500
X125999Y038500
X126499Y040050
X126999Y040300
X070450Y052100
X071050Y050700
X023250Y044200
X023750Y024000
X062450Y053200
X070500Y040550
X069450Y040900
X068000Y041650
X070800Y041450
X071200Y041200
X069450Y043750
X069450Y042800
X070450Y042800
X070450Y043750
X072500Y043600
X072250Y042750
X074000Y040950
X074150Y047350
X075000Y040900
X076000Y039450
X078000Y041650
X078000Y039650
X077000Y039700
X128999Y040500
X125449Y042800
X122999Y043800
X122499Y042500
X130499Y045400
X130999Y045300
X125499Y045750
X126499Y045250
X127549Y045600
X123249Y048400
X127149Y048850
X124349Y048400
X125599Y048400
X129499Y049000
X119499Y045450
X125499Y045250
X123549Y047900
X120199Y048600
X118149Y047400
X118499Y048750
X122499Y049000
X110499Y037050
X109999Y038100
X109999Y041650
X112499Y047850
X112999Y047200
X114449Y038500
X115099Y039450
X115499Y040050
X115999Y040250
X117999Y040500
X117249Y042500
X121699Y039900
X121699Y038250
X120499Y042850
X119999Y039450
X118999Y040950
X119999Y045200
X120949Y038500
X120999Y044250
X120799Y004700
X132599Y012700
X135149Y029950
X135599Y030450
X125099Y030500
X132399Y030900
X132399Y031950
X123149Y029250
X123499Y032100
X122349Y025950
X120449Y031300
X120699Y023300
X113249Y031300
X114499Y032150
X108499Y026550
X108549Y003450
X081500Y046900
X081500Y045700
X081500Y045250
X076500Y045450
X075450Y045450
X076000Y045200
X070750Y037250
X056700Y036950
X051000Y038300
X050000Y038450
X064000Y039800
X063000Y040050
X060950Y040250
X065950Y040250
X065000Y045250
X065500Y044050
X067000Y044050
X062500Y043500
X022000Y041550
X071500Y041600
X058400Y050400
X058400Y048550
X058250Y052500
X058350Y053500
X060150Y050400
X057850Y052300
X057850Y053500
X051000Y053500
X052000Y053300
X053000Y053100
X075100Y040450
X054000Y052900
X055000Y052700
X056000Y052500
X071800Y040300
X072350Y040300
X091149Y029550
T69
X005000Y043250
X074000Y046250
X075000Y046250
X076000Y046250
X077000Y046250
X078000Y046250
X079000Y046250
X080000Y046250
X002250Y021500
X002250Y020500
X002250Y019500
X002250Y018500
X002250Y017500
X002250Y016500
X002250Y015500
X005250Y017500
X005250Y018500
X005250Y019500
X005250Y020500
X005250Y021500
X005250Y022500
X005250Y023500
X002250Y011250
X002250Y010250
X002250Y009250
X002250Y008250
X002250Y007250
X005250Y007250
X005250Y008250
X005250Y009250
X002250Y006250
X005250Y006250
X002250Y005250
X002250Y004250
X005250Y004250
X005250Y005250
X002250Y014500
X002250Y013250
X002250Y012250
X005250Y014500
X005250Y015500
X005250Y016500
X005250Y010250
X005250Y011250
X005250Y012250
X005250Y013250
X080000Y043250
X079000Y043250
X002250Y023500
X002250Y022500
X078000Y043250
X077000Y043250
X076000Y043250
X075000Y043250
X074000Y043250
X073000Y043250
X072000Y043250
X071000Y043250
X069000Y043250
X068000Y043250
X006500Y041250
X007500Y041250
X008500Y041250
X009500Y041250
X010500Y041250
X013500Y038500
X067000Y043250
X012500Y038500
X066000Y043250
X065000Y043250
X011500Y038500
X010500Y038500
X064000Y043250
X078000Y052750
X011500Y041250
X012500Y041250
X017500Y041250
X018500Y041250
X019500Y041250
X020500Y041250
X021500Y041250
X022500Y041250
X080000Y052750
X080000Y051750
X079000Y052750
X079000Y051750
X078000Y051750
X077000Y057000
X076000Y057000
X075000Y057000
X074000Y057000
X073000Y057000
X072000Y057000
X071000Y057000
X071000Y059000
X072000Y059000
X073000Y059000
X010500Y032500
X074000Y059000
X075000Y059000
X076000Y059000
X077000Y059000
X011500Y032500
X012500Y032500
X013500Y032500
X014500Y032500
X015500Y032500
X016500Y032500
X017500Y032500
X078000Y059000
X078000Y056000
X018500Y032500
X019500Y032500
X020500Y032500
X021500Y032500
X022500Y032500
X023500Y041250
X028500Y041250
X029500Y041250
X027000Y043250
X028000Y043250
X029000Y043250
X030500Y041250
X030000Y043250
X031000Y043250
X032000Y043250
X030500Y050250
X031500Y050250
X032500Y050250
X033500Y050250
X034500Y050250
X077000Y056000
X076000Y056000
X075000Y056000
X074000Y056000
X073000Y056000
X072000Y056000
X071000Y056000
X071000Y054750
X072000Y054750
X073000Y054750
X074000Y054750
X075000Y054750
X076000Y054750
X034000Y046250
X033000Y046250
X032000Y046250
X031000Y046250
X030000Y046250
X029000Y046250
X028000Y046250
X027000Y046250
X077000Y054750
X080000Y057000
X080000Y059000
X080000Y056000
X079000Y057000
X078000Y057000
X079000Y059000
X079000Y056000
X078000Y054750
X079000Y054750
X080000Y054750
X017500Y050250
X018500Y050250
X016000Y051750
X017000Y051750
X018000Y051750
X019000Y051750
X019500Y050250
X020500Y050250
X021500Y050250
X022500Y050250
X023500Y050250
X028500Y050250
X029500Y050250
X020000Y051750
X021000Y051750
X022000Y051750
X023000Y051750
X024000Y051750
X025000Y051750
X077000Y052750
X076000Y052750
X077000Y051750
X076000Y051750
X075000Y052750
X074000Y052750
X025000Y054750
X024000Y054750
X023000Y054750
X022000Y054750
X075000Y051750
X074000Y051750
X073000Y052750
X072000Y052750
X071000Y052750
X073000Y051750
X025000Y046250
X024000Y046250
X023000Y046250
X022000Y046250
X021000Y046250
X020000Y046250
X019000Y046250
X021000Y054750
X020000Y054750
X019000Y054750
X018000Y054750
X017000Y054750
X016000Y054750
X018500Y055750
X072000Y051750
X018500Y056750
X018500Y057750
X071000Y051750
X069000Y058750
X039500Y041250
X040500Y041250
X041500Y041250
X042500Y041250
X043500Y041250
X044500Y041250
X045500Y041250
X031500Y041250
X032500Y041250
X033500Y041250
X034500Y041250
X033000Y043250
X034000Y043250
X035000Y043250
X036000Y043250
X047000Y046250
X046000Y046250
X045000Y046250
X044000Y046250
X043000Y046250
X042000Y046250
X041000Y046250
X040000Y046250
X039000Y046250
X038000Y046250
X038000Y043250
X039000Y043250
X040000Y043250
X041000Y043250
X042000Y043250
X043000Y043250
X044000Y043250
X045000Y043250
X036000Y046250
X035000Y046250
X068000Y058750
X067000Y058750
X066000Y058750
X065000Y058750
X064000Y058750
X063000Y058750
X063000Y054750
X064000Y054750
X065000Y054750
X066000Y054750
X067000Y054750
X068000Y054750
X069000Y054750
X043000Y051750
X043000Y054750
X037100Y051750
X044000Y051750
X044000Y054750
X045000Y051750
X045000Y054750
X046000Y051750
X047000Y051750
X047000Y054750
X046000Y054750
X038000Y058750
X039000Y058750
X040000Y058750
X041000Y058750
X042000Y058750
X043000Y058750
X044000Y058750
X045000Y058750
X046000Y058750
X047000Y058750
X069000Y051750
X068000Y051750
X067000Y051750
X066000Y051750
X065000Y051750
X064000Y051750
X063000Y051750
X071000Y046250
X072000Y046250
X036100Y051750
X035100Y051750
X073000Y046250
X060000Y046250
X061000Y046250
X062000Y046250
X063000Y046250
X064000Y046250
X065000Y046250
X066000Y046250
X067000Y046250
X068000Y046250
X069000Y046250
X063000Y043250
X062000Y043250
X061000Y043250
X060000Y043250
X058000Y043250
X057000Y043250
X056000Y043250
X055000Y043250
X056000Y046250
X057000Y046250
X058000Y046250
X052000Y046250
X053000Y046250
X054000Y046250
X055000Y046250
X049000Y046250
X050000Y046250
X014000Y054750
X013000Y054750
X012000Y054750
X011000Y054750
X009000Y054750
X008000Y054750
X007000Y054750
X051000Y046250
X006000Y054750
X005000Y054750
X054000Y043250
X053000Y043250
X052000Y043250
X051000Y043250
X050000Y043250
X049000Y043250
X047000Y043250
X046000Y043250
X062000Y058750
X061000Y058750
X060000Y058750
X058000Y058750
X057000Y058750
X056000Y058750
X055000Y058750
X054000Y058750
X053000Y058750
X010000Y054750
X060000Y054750
X061000Y054750
X062000Y054750
X016000Y043250
X017000Y043250
X018000Y043250
X019000Y043250
X020000Y043250
X021000Y043250
X022000Y043250
X023000Y043250
X024000Y043250
X025000Y043250
X023500Y032500
X024500Y032500
X025500Y032500
X026500Y032500
X027500Y032500
X028500Y032500
X029500Y032500
X029500Y038500
X028500Y038500
X027500Y038500
X026500Y038500
X025500Y038500
X024500Y038500
X023500Y038500
X022500Y038500
X021500Y038500
X020500Y038500
X019500Y038500
X018500Y038500
X017500Y038500
X016500Y038500
X015500Y038500
X014500Y038500
X006500Y050250
X007500Y050250
X005000Y051750
X006000Y051750
X007000Y051750
X013000Y043250
X013000Y046250
X014000Y043250
X014000Y046250
X016000Y046250
X008500Y050250
X009500Y050250
X010500Y050250
X011500Y050250
X012500Y050250
X012000Y046250
X011000Y046250
X010000Y046250
X009000Y046250
X008000Y046250
X062000Y051750
X061000Y051750
X060000Y051750
X058000Y051750
X058000Y054750
X057000Y051750
X056000Y051750
X055000Y051750
X052000Y054750
X053000Y054750
X054000Y054750
X055000Y054750
X056000Y054750
X057000Y054750
X054000Y051750
X053000Y051750
X052000Y051750
X051000Y051750
X050000Y051750
X018000Y046250
X017000Y046250
X049000Y058750
X049000Y054750
X008000Y051750
X009000Y051750
X010000Y051750
X011000Y051750
X012000Y051750
X013000Y051750
X014000Y051750
X050000Y058750
X050000Y054750
X051000Y054750
X049000Y051750
X007000Y043250
X008000Y043250
X009000Y043250
X010000Y043250
X011000Y043250
X012000Y043250
X007000Y046250
X006000Y046250
X005000Y046250
X052000Y058750
X031250Y032500
X032250Y032500
X033250Y032500
X034250Y032500
X035250Y032500
X042250Y038500
X041250Y038500
X040250Y038500
X039250Y038500
X038250Y038500
X037250Y038500
X036250Y038500
X035250Y038500
X034250Y038500
X033250Y038500
X032250Y038500
X031250Y038500
X036250Y032500
X037250Y032500
X038250Y032500
X039250Y032500
X040250Y032500
X041250Y032500
X042250Y032500
X044000Y032500
X045000Y032500
X046000Y032500
X047000Y032500
X048000Y032500
X048000Y035500
X047000Y035500
X046000Y035500
X046000Y036750
X047000Y036750
X045000Y035500
X044000Y035500
X044000Y036750
X045000Y036750
X048000Y036750
X048000Y039750
X047000Y039750
X046000Y039750
X045000Y039750
X044000Y039750
X051000Y058750
X078500Y050250
X038000Y051750
X038000Y054750
X077500Y050250
X076500Y050250
X039000Y051750
X039000Y054750
X040000Y051750
X040000Y054750
X075500Y050250
X074500Y050250
X041000Y051750
X042000Y051750
X042000Y054750
X041000Y054750
X073500Y050250
X072500Y050250
X067500Y050250
X066500Y050250
X065500Y050250
X064500Y050250
X063500Y050250
X062500Y050250
X061500Y050250
X056500Y050250
X055500Y050250
X054500Y050250
X053500Y050250
X052500Y050250
X051500Y050250
X050500Y050250
X045500Y050250
X044500Y050250
X043500Y050250
X042500Y050250
X041500Y050250
X040500Y050250
X039500Y050250
X100499Y041250
X099499Y041250
X098499Y041250
X097499Y041250
X096499Y041250
X095499Y041250
X094499Y041250
X089499Y041250
X088499Y041250
X087499Y041250
X086499Y041250
X085499Y041250
X084500Y041250
X083500Y041250
X078500Y041250
X077500Y041250
X076500Y041250
X075500Y041250
X074500Y041250
X073500Y041250
X072500Y041250
X067500Y041250
X066500Y041250
X065500Y041250
X064500Y041250
X063500Y041250
X062500Y041250
X061500Y041250
X051000Y036750
X050000Y036750
X049000Y036750
X049000Y035500
X050000Y035500
X051000Y035500
X052000Y035500
X053000Y035500
X053000Y032500
X052000Y032500
X051000Y032500
X050000Y032500
X049000Y032500
X049000Y039750
X050000Y039750
X051000Y039750
X056500Y041250
X055500Y041250
X054500Y041250
X053500Y041250
X052500Y041250
X051500Y041250
X050500Y041250
X081000Y011500
X081000Y010500
X081000Y009500
X081000Y008500
X079250Y006500
X080250Y006500
X081250Y006500
X082250Y006500
X083500Y010000
X083500Y011000
X083500Y012000
X081000Y015500
X081000Y014500
X081000Y013500
X081000Y012500
X083500Y013000
X083500Y014000
X083500Y015000
X083500Y016000
X083500Y017000
X083500Y018000
X083500Y019000
X083500Y020000
X083500Y021000
X083500Y022000
X083500Y023000
X061500Y008250
X062500Y008250
X063500Y008250
X064500Y008250
X065500Y008250
X066500Y008250
X067500Y008250
X068500Y008250
X069500Y008250
X070500Y008250
X071500Y008250
X072500Y008250
X073500Y008250
X074500Y008250
X082250Y003500
X081250Y003500
X080250Y003500
X079250Y003500
X074500Y002250
X073500Y002250
X072500Y002250
X071500Y002250
X070500Y002250
X069500Y002250
X068500Y002250
X067500Y002250
X066500Y002250
X065500Y002250
X064500Y002250
X063500Y002250
X062500Y002250
X061500Y002250
X078000Y012500
X078000Y013500
X078000Y014500
X078000Y015500
X054000Y001500
X054000Y002500
X054000Y003500
X054000Y004500
X054000Y005500
X054000Y006500
X054000Y007500
X054000Y008500
X078000Y008500
X078000Y009500
X078000Y010500
X078000Y011500
X078250Y006500
X078250Y003500
X077250Y006500
X077250Y003500
X076250Y006500
X076250Y003500
X094499Y054750
X095499Y054750
X096499Y054750
X097499Y054750
X098499Y054750
X099499Y054750
X099499Y051750
X098499Y051750
X097499Y051750
X096499Y051750
X095499Y051750
X094499Y051750
X093499Y051750
X093499Y058000
X090499Y051750
X090499Y059000
X091499Y051750
X091499Y059000
X092499Y058000
X092499Y051750
X092499Y059000
X093499Y059000
X099499Y058000
X098499Y058000
X097499Y058000
X096499Y058000
X095499Y058000
X094499Y058000
X094499Y059000
X095499Y059000
X096499Y059000
X097499Y059000
X098499Y059000
X099499Y059000
X100999Y059000
X103999Y059000
X103999Y058000
X103999Y057000
X103999Y056000
X103999Y055000
X103999Y054000
X103999Y053000
X100999Y053000
X100999Y054000
X100999Y055000
X100999Y056000
X100999Y057000
X100999Y058000
X103999Y046250
X104999Y046250
X105999Y046250
X106999Y046250
X107999Y046250
X107999Y043250
X106999Y043250
X105999Y043250
X104999Y043250
X103999Y043250
X101999Y043250
X099999Y046250
X100999Y046250
X101999Y046250
X100999Y043250
X099999Y043250
X098999Y043250
X092999Y046250
X093999Y046250
X094999Y046250
X095999Y046250
X096999Y046250
X097999Y046250
X098999Y046250
X097999Y043250
X096999Y043250
X095999Y043250
X094999Y043250
X093999Y043250
X092999Y043250
X107499Y050250
X106499Y050250
X105499Y050250
X100499Y050250
X099499Y050250
X098499Y050250
X097499Y050250
X096499Y050250
X095499Y050250
X094499Y050250
X099499Y053750
X098499Y053750
X097499Y053750
X096499Y053750
X095499Y053750
X094499Y053750
X093499Y053750
X092499Y053750
X090499Y054750
X091499Y054750
X092499Y054750
X093499Y054750
X099499Y056000
X098499Y056000
X097499Y056000
X096499Y056000
X095499Y056000
X094499Y056000
X093499Y056000
X092499Y056000
X091499Y056000
X090499Y056000
X089499Y050250
X088499Y050250
X087499Y050250
X082000Y046250
X083000Y046250
X084000Y046250
X084999Y046250
X085999Y046250
X086999Y046250
X087999Y046250
X088999Y046250
X089999Y046250
X090999Y046250
X090999Y043250
X089999Y043250
X088999Y043250
X087999Y043250
X086999Y043250
X085999Y043250
X084999Y043250
X084000Y043250
X083000Y043250
X082000Y043250
X086499Y050250
X085499Y050250
X084500Y050250
X083500Y050250
X107999Y059000
X107999Y058000
X107999Y057000
X107999Y056000
X107999Y055000
X107999Y054000
X107999Y053000
X104999Y053000
X104999Y054000
X104999Y055000
X104999Y056000
X104999Y057000
X104999Y058000
X104999Y059000
X111499Y050250
X110499Y050250
X109499Y050250
X108499Y050250
X112999Y053000
X112999Y054000
X112999Y055000
X112999Y056000
X111999Y056000
X111999Y055000
X111999Y054000
X111999Y053000
X108999Y053000
X108999Y054000
X108999Y055000
X108999Y056000
X111999Y059000
X111999Y058000
X111999Y057000
X112999Y057000
X108999Y057000
X112999Y058000
X108999Y058000
X112999Y059000
X108999Y059000
X107499Y041250
X106499Y041250
X105499Y041250
X104999Y023000
X104999Y022000
X104999Y021000
X104999Y020000
X104999Y019000
X104999Y018000
X098999Y017000
X098999Y018000
X098999Y019000
X098999Y020000
X098999Y021000
X098999Y022000
X098999Y023000
X125999Y046250
X126999Y046250
X127999Y046250
X128999Y046250
X129999Y046250
X130999Y046250
X131999Y046250
X132999Y046250
X133999Y046250
X134999Y046250
X134999Y043250
X133999Y043250
X132999Y043250
X131999Y043250
X130999Y043250
X129999Y043250
X128999Y043250
X127999Y043250
X126999Y043250
X125999Y043250
X116999Y046250
X117999Y046250
X118999Y046250
X119999Y046250
X120999Y046250
X121999Y046250
X122999Y046250
X123999Y046250
X123999Y043250
X122999Y043250
X121999Y043250
X120999Y043250
X119999Y043250
X118999Y043250
X117999Y043250
X133499Y050250
X132499Y050250
X137749Y051250
X137749Y052250
X137749Y053250
X131499Y050250
X130499Y050250
X129499Y050250
X128499Y050250
X127499Y050250
X133499Y041250
X132499Y041250
X131499Y041250
X130499Y041250
X129499Y041250
X127499Y041250
X128499Y041250
X115999Y046250
X116999Y043250
X115999Y043250
X114999Y046250
X114999Y043250
X112999Y046250
X112999Y043250
X108999Y046250
X109999Y046250
X110999Y046250
X111999Y046250
X111999Y043250
X110999Y043250
X122499Y041250
X121499Y041250
X120499Y041250
X119499Y041250
X118499Y041250
X117499Y041250
X116499Y041250
X111499Y041250
X110499Y041250
X109499Y041250
X109999Y043250
X108999Y043250
X108499Y041250
X122499Y050250
X121499Y050250
X120499Y050250
X119499Y050250
X118499Y050250
X117499Y050250
X116499Y050250
X120999Y058000
X120999Y059000
X119999Y059000
X119999Y058000
X120999Y056000
X120999Y057000
X119999Y057000
X119999Y056000
X116999Y057000
X116999Y058000
X116999Y059000
X115999Y059000
X115999Y058000
X115999Y057000
X123999Y059000
X123999Y058000
X123999Y057000
X123999Y056000
X123999Y055000
X120999Y055000
X123999Y054000
X120999Y054000
X119999Y054000
X116999Y054000
X119999Y055000
X116999Y055000
X116999Y056000
X115999Y056000
X115999Y055000
X115999Y054000
X123999Y053000
X120999Y053000
X119999Y053000
X116999Y053000
X115999Y053000
X104999Y017000
X104999Y016000
X104999Y015000
X104999Y014000
X104999Y013000
X104999Y012000
X104999Y011000
X104999Y010000
X098999Y010000
X098999Y011000
X098999Y012000
X098999Y013000
X098999Y014000
X098999Y015000
X098999Y016000
X095749Y021000
X092749Y019000
X092749Y020000
X092749Y021000
X089499Y023000
X089499Y022000
X089499Y021000
X089499Y020000
X095749Y020000
X095749Y019000
X089499Y019000
X089499Y018000
X089499Y017000
X089499Y016000
X089499Y015000
X089499Y014000
X089499Y013000
X089499Y012000
X089499Y011000
X089499Y010000
X006000Y043250
T70
X070000Y047500
X102949Y024650
X104949Y024650
X097499Y022000
X049500Y048500
X097499Y023000
X071000Y047500
X081000Y047500
X078500Y047500
X076500Y047500
X077500Y048500
X078500Y017000
X080500Y017000
X063000Y024000
X075500Y048500
X075500Y047500
X064000Y024000
X066000Y024000
X108499Y047500
X073500Y047500
X109499Y047500
X111499Y047500
X090999Y022000
X108499Y048500
X110499Y048500
X114999Y047500
X074500Y048000
X018500Y039350
X073500Y048500
X113999Y047500
X115499Y048500
X116499Y048000
X090999Y023000
X117499Y048500
X118499Y048000
X019100Y040150
X072500Y048000
X117499Y047500
X071500Y048500
X119499Y047500
X119499Y048500
X041000Y024000
X121499Y048500
X081250Y052250
X081250Y053250
X120499Y047500
X122499Y047500
X043000Y024000
X044000Y024000
X046000Y024000
X058900Y047400
X047000Y024000
X063300Y010450
X015500Y039350
X049000Y024000
X061300Y010450
X062900Y011150
X060900Y011150
X059900Y047400
X050000Y024000
X052000Y024000
X055000Y024000
X067500Y047500
X057000Y024000
X065500Y047500
X066500Y048500
X135249Y049750
X135249Y048750
X132499Y048500
X133499Y047500
X126499Y048500
X125999Y047500
X124999Y047500
X128499Y048500
X064500Y048500
X130499Y048500
X127499Y048000
X064500Y047500
X129499Y048000
X128499Y047500
X063500Y048000
X061500Y048000
X130499Y047500
X062500Y047500
X131499Y047500
X136999Y043250
X135999Y043250
X058000Y024000
X060000Y024000
X061000Y024000
X054250Y039800
X075500Y004500
X075500Y005500
X052250Y039800
X053250Y038000
X052250Y038000
X106499Y047500
X062500Y048500
X107499Y048000
X106499Y048500
X060500Y048500
X056500Y047500
X026850Y007100
X028850Y007100
X026850Y004100
X027850Y004600
X028850Y004100
X027850Y007600
X054500Y047500
X055500Y048500
X053500Y048500
X053500Y047500
X052500Y048000
X021850Y007600
X021850Y004600
X022850Y007100
X022850Y004100
X023850Y007600
X023850Y004600
X024850Y007100
X024850Y004100
X037000Y056000
X038000Y056000
X042000Y039750
X043000Y039750
X025850Y007600
X019550Y058900
X017550Y058900
X022200Y058900
X020200Y058900
X015000Y047500
X016000Y047500
X021500Y047500
X022500Y048500
X020500Y048500
X020500Y047500
X019500Y048000
X018500Y047500
X017500Y048000
X018500Y048500
X016500Y048500
X012500Y047500
X010500Y047500
X009500Y047500
X007500Y047500
X011500Y048500
X009500Y048500
X008500Y048000
X006500Y048000
X007500Y048500
X005500Y048500
X013500Y054000
X011500Y054000
X010500Y054000
X014000Y058750
X013000Y058750
X011000Y058750
X010000Y058750
X008000Y058750
X004250Y047500
X005250Y047500
X007000Y058000
X005000Y058000
X007000Y058750
X005000Y058750
X025850Y004600
X004250Y056000
X007500Y054000
X005500Y054000
X051500Y048500
X005250Y056000
X008500Y054000
X015000Y056000
X016000Y056000
X048000Y047500
X049000Y047500
X049000Y056000
X082500Y048500
X083500Y048000
X082000Y047500
X084500Y048500
X085499Y048000
X084500Y047500
X086499Y047500
X086499Y048500
X082750Y053250
X048000Y056000
X045500Y047500
X084749Y053250
X084749Y052500
X082750Y052500
X088499Y048500
X089499Y047500
X087499Y047500
X091999Y047500
X089249Y053250
X089249Y052250
X093499Y048500
X092999Y047500
X095499Y048500
X035650Y054600
X035650Y055600
X036400Y058900
X036400Y056900
X035650Y058900
X035650Y056900
X034900Y058900
X034900Y056900
X034950Y052600
X043500Y047500
X044500Y048500
X042500Y048500
X042500Y047500
X041500Y048000
X039500Y048000
X040500Y047500
X040500Y048500
X035500Y047200
X035500Y048200
X037000Y047500
X095499Y047500
X016500Y039350
X094499Y048000
X050500Y048000
X096499Y048000
X006750Y013000
X097499Y047500
X097499Y048500
X006750Y012000
X099499Y048500
X098499Y047500
X013500Y039350
X100499Y047500
X104499Y048500
X105499Y048000
X103999Y047500
X102999Y047500
X059000Y056000
X038000Y047500
X038500Y048500
X016900Y057750
X016000Y058750
X016900Y055750
X060000Y056000
X022850Y058900
X022850Y058250
X022600Y057450
X023300Y057450
X022600Y055450
X023300Y055450
X024850Y058900
X025350Y059500
X009500Y036000
X010500Y039500
X009500Y039500
X014500Y040750
X034500Y047500
X032500Y047500
X033500Y048500
X031500Y048500
X016100Y040150
X031500Y047500
X029500Y047500
X030500Y048000
X029500Y048500
X027000Y047500
X028500Y048000
X027500Y048500
X024850Y058250
X024700Y057600
X025350Y057500
X024700Y055600
X024000Y055450
X024000Y057450
X026000Y047500
X023500Y047500
X034300Y051700
X032950Y052600
X032300Y051700
X032250Y052600
X030250Y052600
X009500Y035000
X015500Y040750
X051500Y047500
T72
X011400Y034850
X011400Y036330
T78
X078500Y054200
X090999Y015000
X079500Y053400
X026750Y053150
X083750Y007500
X090999Y009750
X062400Y039500
X010500Y033500
T71
X000850Y016550
X002950Y041250
X002950Y040250
X000850Y028550
X000850Y027550
X000850Y026550
X000850Y025550
X000850Y024550
X000850Y023550
X000850Y022550
X000850Y021550
X000850Y020550
X000850Y019550
X000850Y018550
X000850Y017550
X002950Y042250
X000850Y014550
X000850Y015550
T68
X005250Y037250
X119749Y029750
X118749Y029750
X027000Y058750
X027000Y055750
X027000Y054750
X027000Y057750
X112249Y029750
X111249Y029750
X021250Y029750
X020250Y029750
X025000Y022250
X024000Y022250
X017500Y022250
X016500Y022250
X013750Y029750
X102249Y007250
X012750Y029750
X006250Y029750
X006250Y037250
X062000Y056250
X087249Y037250
X005250Y029750
X086249Y037250
X007000Y056250
X007000Y057250
X051000Y057250
X040000Y056250
X040000Y057250
X051000Y056250
X087249Y029750
X058750Y037250
X086249Y029750
X057750Y037250
X070000Y037250
X069000Y037250
X017500Y007250
X016500Y007250
X118749Y022250
X020250Y014750
X094749Y037250
X093749Y037250
X094749Y029750
X077500Y037250
X076500Y037250
X073750Y029750
X127249Y022250
X093749Y029750
X072750Y029750
X037500Y007250
X036500Y007250
X066250Y029750
X126249Y022250
X102249Y037250
X119749Y022250
X118749Y037250
X065250Y029750
X101249Y037250
X102249Y029750
X101249Y029750
X134749Y011000
X119749Y037250
X057750Y014750
X133749Y011000
X058750Y014750
X127249Y014750
X061500Y022250
X043750Y014750
X126249Y014750
X042750Y014750
X036250Y014750
X119749Y014750
X062500Y022250
X118749Y014750
X111249Y037250
X112249Y037250
X127999Y055750
X069000Y022250
X093749Y014750
X070000Y022250
X050250Y014750
X094749Y014750
X051250Y014750
X086249Y007250
X035250Y014750
X127999Y054750
X127999Y058750
X072750Y014750
X087249Y007250
X073750Y014750
X101249Y007250
X127999Y057750
X093749Y007250
X127249Y037250
X126249Y037250
X094749Y007250
X134749Y037250
X133749Y037250
X082000Y054750
X082000Y055750
X082000Y057750
X082000Y058750
X127249Y007250
X028750Y014750
X027750Y014750
X021250Y014750
X126249Y007250
X058750Y029750
X115999Y007250
X114999Y007250
X013750Y014750
X057750Y029750
X051250Y029750
X112249Y022250
X012750Y014750
X111249Y022250
X127249Y029750
X126249Y029750
X010000Y022250
X009000Y022250
X112249Y014750
X134749Y026000
X133749Y026000
X077500Y022250
X056500Y007250
X057500Y007250
X111249Y014750
X076500Y022250
X066250Y014750
X062000Y057250
X055000Y022250
X054000Y022250
X047500Y022250
X046500Y022250
X040000Y022250
X039000Y022250
X032500Y022250
X031500Y022250
X027750Y029750
X028750Y029750
X035250Y029750
X036250Y029750
X042750Y029750
X043750Y029750
X050250Y029750
X065250Y014750
T74
X001000Y041250
X001000Y039250
X002000Y043250
T67
X018500Y019250
X026000Y019250
X033500Y019250
X041000Y019250
X052250Y026750
X044750Y026750
X037250Y026750
X029750Y026750
X049750Y025750
X042250Y025750
X034750Y025750
X027250Y025750
X046000Y018250
X064750Y010750
X053500Y018250
X048500Y019250
X056000Y019250
X008500Y018250
X011000Y019250
X012250Y010750
X058500Y004250
X056000Y003250
X059750Y011750
X095749Y011750
X057250Y010750
X052250Y011750
X027250Y010750
X029750Y011750
X034750Y010750
X038500Y018250
X093249Y010750
X049750Y010750
X042250Y010750
X044750Y011750
X071000Y019250
X068500Y018250
X063500Y019250
X113249Y034250
X061000Y018250
X110749Y033250
X036000Y003250
X110749Y010750
X120749Y034250
X038500Y004250
X014750Y011750
X019750Y010750
X022250Y011750
X016000Y003250
X018500Y004250
X004750Y033250
X004750Y025750
X007250Y034250
X007250Y026750
X012250Y025750
X014750Y026750
X022250Y026750
X019750Y025750
X118249Y033250
X113249Y026750
X031000Y018250
X023500Y018250
X088249Y034250
X037250Y011750
X085749Y033250
X074750Y026750
X072250Y025750
X067250Y026750
X064750Y025750
X059750Y026750
X057250Y025750
X110749Y025750
X118249Y025750
X088249Y026750
X085749Y025750
X095749Y026750
X120749Y026750
X059750Y034250
X071000Y034250
X078500Y034250
X057250Y033250
X068500Y033250
X076000Y033250
X095749Y034250
X093249Y025750
X093249Y033250
X128249Y019250
X103249Y034250
X120749Y019250
X100749Y033250
X125749Y018250
X100749Y025750
X103249Y026750
X118249Y018250
X128249Y011750
X120749Y011750
X125749Y010750
X118249Y010750
X128249Y034250
X135749Y008000
X135749Y034250
X133249Y033250
X133249Y007000
X128249Y004250
X125749Y003250
X116999Y004250
X114499Y003250
X113249Y019250
X125749Y033250
X128249Y026750
X110749Y018250
X125749Y025750
X135749Y023000
X133249Y022000
X078500Y019250
X076000Y018250
X074750Y011750
X072250Y010750
X067250Y011750
X103249Y004250
X100749Y003250
X095749Y004250
X093249Y003250
X088249Y004250
X085749Y003250
X113249Y011750
X016000Y018250
T73
X003000Y050750
X001000Y050750
X003000Y044750
X003000Y046750
X003000Y048750
X003000Y052750
X002000Y044750
X002000Y046750
X002000Y048750
X002000Y052750
X001000Y044750
X001000Y046750
X001000Y048750
X001000Y052750
X003000Y058750
X002000Y058750
X001000Y058750
X003000Y054750
X002000Y054750
X001000Y054750
X003000Y056750
X002000Y056750
X001000Y056750
X002000Y050750
T75
X128749Y012750
X121249Y012750
X109749Y027750
X117249Y027750
X113749Y027750
X113749Y020250
X109749Y020250
X109749Y012750
X117249Y012750
X113499Y005250
X117499Y005250
X124749Y012750
X071250Y012750
X075250Y012750
X063750Y012750
X060250Y012750
X075000Y020250
X079000Y020250
X067500Y020250
X071500Y020250
X064000Y020250
X060000Y020250
X052500Y020250
X056500Y020250
X128749Y020250
X124749Y020250
X121249Y020250
X117249Y020250
X121249Y027750
X136249Y024000
X132249Y024000
X128749Y027750
X003750Y035250
X007750Y035250
X124749Y027750
X136249Y035250
X132249Y035250
X128749Y035250
X124749Y035250
X136249Y009000
X132249Y009000
X128749Y005250
X124749Y005250
X121249Y035250
X117249Y035250
X113749Y035250
X067750Y012750
X109749Y035250
X015250Y027750
X011250Y027750
X007500Y020250
X007750Y027750
X003750Y027750
X018750Y027750
X022750Y012750
X026250Y012750
X018750Y012750
X037750Y012750
X067500Y035250
X071500Y035250
X075000Y035250
X079000Y035250
X071250Y027750
X075250Y027750
X067750Y027750
X033750Y012750
X030250Y012750
X039000Y005250
X035000Y005250
X011500Y020250
X015000Y020250
X015250Y012750
X011250Y012750
X026500Y020250
X022500Y020250
X019000Y005250
X015000Y005250
X019000Y020250
X022750Y027750
X026250Y027750
X088749Y027750
X033750Y027750
X034000Y020250
X041500Y020250
X037500Y020250
X030000Y020250
X030250Y027750
X037750Y027750
X045250Y027750
X041250Y027750
X052750Y027750
X048750Y027750
X045250Y012750
X041250Y012750
X048750Y012750
X052750Y012750
X059000Y005250
X055000Y005250
X056250Y012750
X049000Y020250
X045000Y020250
X060250Y027750
X056250Y027750
X063750Y027750
X060250Y035250
X056250Y035250
X088749Y005250
X084749Y005250
X103749Y027750
X084749Y035250
X084749Y027750
X092249Y027750
X096249Y027750
X088749Y035250
X092249Y035250
X096249Y035250
X099749Y035250
X099749Y027750
X103749Y035250
X096249Y005250
X103749Y005250
X099749Y005250
X092249Y005250
X096249Y012750
X092249Y012750
X113749Y012750
T76
X005750Y035250
X119249Y035250
X111749Y035250
X126749Y005250
X137999Y002000
X134249Y009000
X126749Y035250
X134249Y035250
X126749Y027750
X134249Y024000
X119249Y027750
X119249Y020250
X126749Y020250
X119249Y012750
X126749Y012750
X111749Y027750
X111749Y020250
X111749Y012750
X115499Y005250
X070000Y049000
X073250Y012750
X065750Y012750
X077000Y020250
X069500Y020250
X062000Y020250
X054500Y020250
X013250Y027750
X009500Y020250
X005750Y027750
X020750Y012750
X069500Y035250
X077000Y035250
X035750Y012750
X073250Y027750
X020750Y027750
X065750Y027750
X028250Y012750
X037000Y005250
X013250Y012750
X002000Y002000
X017000Y020250
X024500Y020250
X017000Y005250
X039500Y020250
X032000Y020250
X028250Y027750
X035750Y027750
X043250Y027750
X043250Y012750
X050750Y012750
X057000Y005250
X058250Y012750
X050750Y027750
X047000Y020250
X058250Y027750
X058250Y035250
X086749Y005250
X086749Y027750
X094249Y027750
X086749Y035250
X094249Y035250
X101749Y027750
X101749Y035250
X101749Y005250
X094249Y005250
X094249Y012750
M30
